<?xml version="1.0" encoding="UTF-8" standalone="no"?>
<svg
   xmlns:dc="http://purl.org/dc/elements/1.1/"
   xmlns:cc="http://creativecommons.org/ns#"
   xmlns:rdf="http://www.w3.org/1999/02/22-rdf-syntax-ns#"
   xmlns:svg="http://www.w3.org/2000/svg"
   xmlns="http://www.w3.org/2000/svg"
   xmlns:sodipodi="http://sodipodi.sourceforge.net/DTD/sodipodi-0.dtd"
   xmlns:inkscape="http://www.inkscape.org/namespaces/inkscape"
   sodipodi:docname="drawing.svg"
   inkscape:version="1.0alpha2 (92ff5ac3e3, 2019-07-05)"
   id="svg8"
   version="1.1"
   viewBox="0 0 26.458333 26.458334"
   height="100"
   width="100">
  <style
     id="style10"></style>
  <defs
     id="defs2" />
  <sodipodi:namedview
     units="px"
     showgrid="false"
     inkscape:document-rotation="0"
     inkscape:current-layer="layer1"
     inkscape:document-units="mm"
     inkscape:cy="52.157704"
     inkscape:cx="79.023317"
     inkscape:zoom="3.4251159"
     inkscape:pageshadow="2"
     inkscape:pageopacity="0.0"
     borderopacity="1.0"
     bordercolor="#666666"
     pagecolor="#ffffff"
     id="base" />
  <metadata
     id="metadata5">
    <rdf:RDF>
      <cc:Work
         rdf:about="">
        <dc:format>image/svg+xml</dc:format>
        <dc:type
           rdf:resource="http://purl.org/dc/dcmitype/StillImage" />
        <dc:title></dc:title>
      </cc:Work>
    </rdf:RDF>
  </metadata>
  <g
     id="layer1"
     inkscape:groupmode="layer"
     inkscape:label="Layer 1">
    <path
       inkscape:transform-center-y="-0.52144261"
       inkscape:transform-center-x="-0.26217191"
       d="m 16.971735,20.610754 c -0.132794,0.07667 -4.277074,-3.528764 -4.429571,-3.544792 -0.152497,-0.01603 -4.9558267,2.648972 -5.0697783,2.54637 -0.1139516,-0.102603 2.0343654,-5.158187 2.0024849,-5.308173 -0.031881,-0.149987 -4.0507569,-3.894694 -3.9883891,-4.034774 0.062368,-0.140081 5.5343805,0.340829 5.6671745,0.26416 0.132794,-0.07667 2.452321,-5.0560251 2.604818,-5.039997 0.152497,0.016028 1.38607,5.368831 1.500022,5.471433 0.113951,0.102603 5.566374,0.769899 5.598255,0.919885 0.03188,0.149986 -4.677742,2.977291 -4.74011,3.117371 -0.06237,0.14008 0.987887,5.531848 0.855094,5.608517 z"
       inkscape:randomized="0"
       inkscape:rounded="0.0270277"
       inkscape:flatsided="false"
       sodipodi:arg2="1.6755161"
       sodipodi:arg1="1.0471976"
       sodipodi:r2="3.511019"
       sodipodi:r1="8.1251392"
       sodipodi:cy="13.574177"
       sodipodi:cx="12.909165"
       sodipodi:sides="5"
       id="a"
       style="vector-effect:none;fill:#ffffff;stroke:#cc0000;stroke-width:1.05833;stop-color:#000000"
       sodipodi:type="star" />
    <path
       sodipodi:type="star"
       style="vector-effect:none;fill:#edd400;stroke:#cc0000;stroke-width:1.05833;stop-color:#000000"
       id="b"
       sodipodi:sides="5"
       sodipodi:cx="12.909165"
       sodipodi:cy="13.574177"
       sodipodi:r1="9.7298437"
       sodipodi:r2="2.7759922"
       sodipodi:arg1="1.06083"
       sodipodi:arg2="1.7243735"
       inkscape:flatsided="false"
       inkscape:rounded="0.0270277"
       inkscape:randomized="0"
       d="m 17.658768,22.066005 c -0.185921,0.09555 -4.966682,-5.723827 -5.174258,-5.748509 -0.203658,-0.02422 -6.0383155,4.542455 -6.183845,4.39794 -0.1483288,-0.147294 3.908893,-6.492354 3.868223,-6.697398 -0.0399,-0.201174 -6.1860735,-4.3390837 -6.093603,-4.522148 0.094249,-0.1865855 7.382511,1.711331 7.564951,1.609289 0.178997,-0.100116 2.215112,-7.2241564 2.417791,-7.1927817 0.206578,0.031978 0.653749,7.5500147 0.807174,7.6919937 0.15053,0.139299 7.555088,-0.12569 7.587881,0.07676 0.03342,0.20635 -6.978472,2.954836 -7.066091,3.144625 -0.08596,0.186208 2.45419,7.146475 2.271777,7.240225 z"
       inkscape:transform-center-x="-0.26217191"
       inkscape:transform-center-y="-0.52144261" />
    <path
       inkscape:transform-center-y="-0.52144261"
       inkscape:transform-center-x="-0.26217191"
       d="m 20.341956,20.875699 c -0.140868,0.151109 -6.516917,-3.674987 -6.720664,-3.640854 -0.20787,0.03482 -5.1683955,5.753676 -5.3594285,5.664631 -0.187244,-0.08728 1.4812827,-7.333591 1.3858586,-7.516818 -0.097355,-0.186934 -7.0691926,-3.137453 -7.0435383,-3.346652 0.025146,-0.20505 7.4324002,-0.857421 7.5771722,-1.004795 0.147701,-0.150356 0.799394,-7.6927275 1.006282,-7.732975 0.202785,-0.039449 3.112194,6.803675 3.297092,6.89582 0.188639,0.09401 7.563245,-1.6169142 7.665455,-1.432589 0.100182,0.1806693 -5.508959,5.062323 -5.539458,5.266646 -0.03111,0.208457 3.874949,6.69342 3.731229,6.847586 z"
       inkscape:randomized="0"
       inkscape:rounded="0.0270277"
       inkscape:flatsided="false"
       sodipodi:arg2="1.3786614"
       sodipodi:arg1="0.77648937"
       sodipodi:r2="3.7292918"
       sodipodi:r1="10.419147"
       sodipodi:cy="13.574177"
       sodipodi:cx="12.909165"
       sodipodi:sides="5"
       id="c"
       style="vector-effect:none;fill:#c17d11;stroke:#cc0000;stroke-width:1.05833;stop-color:#000000"
       sodipodi:type="star" />
    <path
       sodipodi:type="star"
       style="vector-effect:none;fill:#ad7fa8;stroke:#cc0000;stroke-width:1.05833;stop-color:#000000"
       id="d"
       sodipodi:sides="5"
       sodipodi:cx="12.909165"
       sodipodi:cy="13.574177"
       sodipodi:r1="9.7695704"
       sodipodi:r2="2.4398246"
       sodipodi:arg1="1.3941289"
       sodipodi:arg2="1.7773635"
       inkscape:flatsided="false"
       inkscape:rounded="0.0270277"
       inkscape:randomized="0"
       d="m 14.626166,23.191682 c -0.186471,0.08367 -2.033524,-7.140345 -2.217412,-7.229549 -0.204587,-0.09925 -7.9631565,2.385522 -8.1157976,2.216981 -0.1371979,-0.151489 6.1624786,-4.140484 6.1904926,-4.342938 0.03117,-0.225242 -4.7295175,-6.8362446 -4.6163942,-7.0334971 0.1016782,-0.1772956 5.8421452,4.5813861 6.0433462,4.5454671 0.223849,-0.03996 5.040154,-6.6105546 5.26271,-6.5639223 0.200038,0.041914 -2.551835,6.9719363 -2.455499,7.1521903 0.107179,0.200544 7.844504,2.750698 7.868927,2.976771 0.02195,0.2032 -7.419266,-0.272492 -7.560928,-0.12517 -0.157609,0.163905 -0.191984,8.310579 -0.399445,8.403667 z"
       inkscape:transform-center-x="-0.26217191"
       inkscape:transform-center-y="-0.52144261" />
  </g>
</svg>
